Candidate 2

Candidate 1

Candidate 16

Candidate 5

Candidate 5

Candidate 18

Candidate 8

Candidate 6

Candidate 1

Candidate 8

Candidate 1
Candidate 2

Candidate 1

Candidate 2

Candidate 5

Candidate 1
Candidate 2

Candidate 19

Candidate 9

Candidate 14

Candidate 5

Candidate 4
